^D:\_PROGRAMMINGPROJECTS\CPP_PROJECTS\3DENGINES\SIMPLE3DENGINE\SIMPLE3DENGINE\SIMPLE3DENGINE.CPP
D:\_PROGRAMMINGPROJECTS\CPP_PROJECTS\3DENGINES\SIMPLE3DENGINE\SIMPLE3DENGINE\DEBUG\VC142.PDB
D:\_PROGRAMMINGPROJECTS\CPP_PROJECTS\3DENGINES\SIMPLE3DENGINE\SIMPLE3DENGINE\DEBUG\VC142.IDB
D:\_PROGRAMMINGPROJECTS\CPP_PROJECTS\3DENGINES\SIMPLE3DENGINE\SIMPLE3DENGINE\DEBUG\SIMPLE3DENGINE.OBJ
